\relax 
\providecommand\hyper@newdestlabel[2]{}
\@writefile{toc}{\contentsline {chapter}{\numberline {2}\uppercase {Desain Sistem}}{4}{chapter.2}}
\@writefile{lof}{\addvspace {10\p@ }}
\@writefile{lot}{\addvspace {10\p@ }}
\@writefile{toc}{\contentsline {section}{\numberline {2.1}Alur Kerja Program}{4}{section.2.1}}
\@writefile{lof}{\contentsline {figure}{\numberline {2.1}{\ignorespaces \textit  {Alur Kerja \textit  {Code Generator} Menggunakan IFML dan \textit  {Class Diagram}}\relax }}{5}{figure.caption.2}}
\providecommand*\caption@xref[2]{\@setref\relax\@undefined{#1}}
\newlabel{fig:wholeproj}{{2.1}{5}{\textit {Alur Kerja \textit {Code Generator} Menggunakan IFML dan \textit {Class Diagram}}\relax }{figure.caption.2}{}}
\@writefile{lof}{\contentsline {figure}{\numberline {2.2}{\ignorespaces \textit  {Alur Kerja \textit  {Parser} dari UML \textit  {Class Diagram}}\relax }}{5}{figure.caption.3}}
\newlabel{fig:umlparser}{{2.2}{5}{\textit {Alur Kerja \textit {Parser} dari UML \textit {Class Diagram}}\relax }{figure.caption.3}{}}
\citation{xmiparserdoc}
\citation{umlSpec}
\citation{metamodelslide}
\citation{metamodelslide}
\@writefile{toc}{\contentsline {section}{\numberline {2.2}Penggunaan \textit  {Metamodel}}{6}{section.2.2}}
\@setckpt{bab2}{
\setcounter{page}{8}
\setcounter{equation}{0}
\setcounter{enumi}{6}
\setcounter{enumii}{0}
\setcounter{enumiii}{0}
\setcounter{enumiv}{0}
\setcounter{footnote}{0}
\setcounter{mpfootnote}{0}
\setcounter{part}{0}
\setcounter{chapter}{2}
\setcounter{section}{2}
\setcounter{subsection}{0}
\setcounter{subsubsection}{0}
\setcounter{paragraph}{0}
\setcounter{subparagraph}{0}
\setcounter{figure}{2}
\setcounter{table}{0}
\setcounter{Item}{8}
\setcounter{Hfootnote}{1}
\setcounter{bookmark@seq@number}{7}
\setcounter{ContinuedFloat}{0}
\setcounter{parentequation}{0}
\setcounter{AM@survey}{0}
\setcounter{float@type}{8}
\setcounter{lstnumber}{1}
\setcounter{section@level}{1}
\setcounter{lstlisting}{0}
}
