\relax 
\providecommand\hyper@newdestlabel[2]{}
\@writefile{toc}{\contentsline {chapter}{\numberline {4}\uppercase {Hasil}}{16}{chapter.4}}
\@writefile{lof}{\addvspace {10\p@ }}
\@writefile{lot}{\addvspace {10\p@ }}
\@writefile{lof}{\contentsline {figure}{\numberline {4.1}{\ignorespaces UML \textit  {Class Diagram} dari Kalkulator Yudisium\relax }}{16}{figure.caption.4}}
\newlabel{fig:uml_kayu}{{4.1}{16}{UML \textit {Class Diagram} dari Kalkulator Yudisium\relax }{figure.caption.4}{}}
\@writefile{lof}{\contentsline {figure}{\numberline {4.2}{\ignorespaces Contoh Luaran \textit  {Concrete Syntax} dari \textit  {Types} dan \textit  {Class}\relax }}{17}{figure.caption.5}}
\newlabel{fig:hasil_luaran}{{4.2}{17}{Contoh Luaran \textit {Concrete Syntax} dari \textit {Types} dan \textit {Class}\relax }{figure.caption.5}{}}
\@setckpt{bab4}{
\setcounter{page}{18}
\setcounter{equation}{0}
\setcounter{enumi}{6}
\setcounter{enumii}{0}
\setcounter{enumiii}{0}
\setcounter{enumiv}{0}
\setcounter{footnote}{0}
\setcounter{mpfootnote}{0}
\setcounter{part}{0}
\setcounter{chapter}{4}
\setcounter{section}{0}
\setcounter{subsection}{0}
\setcounter{subsubsection}{0}
\setcounter{paragraph}{0}
\setcounter{subparagraph}{0}
\setcounter{figure}{2}
\setcounter{table}{0}
\setcounter{Item}{8}
\setcounter{Hfootnote}{1}
\setcounter{bookmark@seq@number}{17}
\setcounter{ContinuedFloat}{0}
\setcounter{parentequation}{0}
\setcounter{AM@survey}{0}
\setcounter{float@type}{8}
\setcounter{lstnumber}{13}
\setcounter{section@level}{1}
\setcounter{lstlisting}{0}
}
