\relax 
\providecommand\hyper@newdestlabel[2]{}
\@writefile{toc}{\contentsline {chapter}{Lampiran 1}{20}{section*.6}}
\@writefile{toc}{\contentsline {chapter}{Lampiran 2}{22}{section*.8}}
\@writefile{toc}{\contentsline {chapter}{Lampiran 3}{23}{section*.11}}
\@writefile{toc}{\contentsline {chapter}{Lampiran 4}{25}{section*.13}}
\@writefile{toc}{\contentsline {chapter}{Lampiran 5}{26}{section*.16}}
\@writefile{toc}{\contentsline {chapter}{Lampiran 6}{28}{section*.18}}
\@writefile{toc}{\contentsline {chapter}{Lampiran 7}{29}{section*.21}}
\@writefile{toc}{\contentsline {chapter}{Lampiran 8}{31}{section*.23}}
\@writefile{toc}{\contentsline {chapter}{Lampiran 9}{32}{section*.26}}
\@writefile{toc}{\contentsline {chapter}{Lampiran 10}{34}{section*.28}}
\@writefile{toc}{\contentsline {chapter}{Lampiran 11}{35}{section*.31}}
\@writefile{toc}{\contentsline {chapter}{Lampiran 12}{36}{section*.33}}
\@writefile{toc}{\contentsline {chapter}{Lampiran 13}{37}{section*.36}}
\@writefile{toc}{\contentsline {chapter}{Lampiran 14}{38}{section*.39}}
\@writefile{toc}{\contentsline {chapter}{Lampiran 15}{39}{section*.41}}
\@setckpt{lampiran}{
\setcounter{page}{40}
\setcounter{equation}{0}
\setcounter{enumi}{6}
\setcounter{enumii}{0}
\setcounter{enumiii}{0}
\setcounter{enumiv}{8}
\setcounter{footnote}{0}
\setcounter{mpfootnote}{0}
\setcounter{part}{0}
\setcounter{chapter}{0}
\setcounter{section}{0}
\setcounter{subsection}{0}
\setcounter{subsubsection}{0}
\setcounter{paragraph}{0}
\setcounter{subparagraph}{0}
\setcounter{figure}{0}
\setcounter{table}{0}
\setcounter{Item}{8}
\setcounter{Hfootnote}{1}
\setcounter{bookmark@seq@number}{34}
\setcounter{ContinuedFloat}{0}
\setcounter{parentequation}{0}
\setcounter{AM@survey}{0}
\setcounter{float@type}{8}
\setcounter{lstnumber}{45}
\setcounter{section@level}{1}
\setcounter{lstlisting}{0}
}
