\relax 
\providecommand\hyper@newdestlabel[2]{}
\bibcite{vanderMDE}{1}
\bibcite{ifmlBook}{2}
\bibcite{umlSpec}{3}
\bibcite{codegenUML}{4}
\bibcite{riaifml}{5}
\bibcite{xmiparserdoc}{6}
\bibcite{metamodelslide}{7}
\bibcite{uiml}{8}
\@writefile{toc}{\contentsline {chapter}{Daftar Referensi}{19}{chapter.5}}
\@setckpt{pustaka}{
\setcounter{page}{20}
\setcounter{equation}{0}
\setcounter{enumi}{6}
\setcounter{enumii}{0}
\setcounter{enumiii}{0}
\setcounter{enumiv}{8}
\setcounter{footnote}{0}
\setcounter{mpfootnote}{0}
\setcounter{part}{0}
\setcounter{chapter}{5}
\setcounter{section}{0}
\setcounter{subsection}{0}
\setcounter{subsubsection}{0}
\setcounter{paragraph}{0}
\setcounter{subparagraph}{0}
\setcounter{figure}{0}
\setcounter{table}{0}
\setcounter{Item}{8}
\setcounter{Hfootnote}{1}
\setcounter{bookmark@seq@number}{19}
\setcounter{ContinuedFloat}{0}
\setcounter{parentequation}{0}
\setcounter{AM@survey}{0}
\setcounter{float@type}{8}
\setcounter{lstnumber}{13}
\setcounter{section@level}{1}
\setcounter{lstlisting}{0}
}
