\relax 
\providecommand\hyper@newdestlabel[2]{}
\providecommand\HyperFirstAtBeginDocument{\AtBeginDocument}
\HyperFirstAtBeginDocument{\ifx\hyper@anchor\@undefined
\global\let\oldcontentsline\contentsline
\gdef\contentsline#1#2#3#4{\oldcontentsline{#1}{#2}{#3}}
\global\let\oldnewlabel\newlabel
\gdef\newlabel#1#2{\newlabelxx{#1}#2}
\gdef\newlabelxx#1#2#3#4#5#6{\oldnewlabel{#1}{{#2}{#3}}}
\AtEndDocument{\ifx\hyper@anchor\@undefined
\let\contentsline\oldcontentsline
\let\newlabel\oldnewlabel
\fi}
\fi}
\global\let\hyper@last\relax 
\gdef\HyperFirstAtBeginDocument#1{#1}
\providecommand\HyField@AuxAddToFields[1]{}
\providecommand\HyField@AuxAddToCoFields[2]{}
\@input{sampul.aux}
\@writefile{toc}{\contentsline {chapter}{Daftar Isi}{ii}{figure.caption.1}}
\@writefile{toc}{\contentsline {chapter}{Daftar Gambar}{iv}{figure.caption.1}}
\@writefile{toc}{\contentsline {chapter}{Daftar Tabel}{v}{figure.caption.1}}
\@input{bab1.aux}
\@input{bab2.aux}
\@input{bab3.aux}
\@input{bab4.aux}
\@input{kesimpulan.aux}
\@input{pustaka.aux}
\@input{lampiran.aux}
